…
## Recoder des variables : `ifelse()`

Syntaxe :

-   `ifelse(condition)`,
-   `valeur_si_vrai`,
-   `valeur_si_faux)`

``` r
tab_naissances %>%  mutate(sexe_ = ifelse(sexe == '1', "garçon", "fille"))
```

    ## # A tibble: 792,868 × 11
    ##    comnais depnais regnais sexe  agemere csm   indnatm amar  jumeau jsemaine sexe_ 
    ##    <chr>   <chr>   <chr>   <chr>   <dbl> <chr> <chr>   <chr> <chr>  <chr>    <chr> 
    ##  1 01004   01      84      2          34 46    1       2015  0      samedi   fille 
    ##  2 01004   01      84      1          29 43    1       0000  0      jeudi    garçon
    ##  3 01004   01      84      2          33 43    1       2010  0      jeudi    fille 
    ##  4 01004   01      84      1          28 46    1       0000  0      samedi   garçon
    ##  5 01004   01      84      1          35 52    1       2006  0      vendredi garçon
    ##  6 01004   01      84      1          33 47    1       2014  0      vendredi garçon
    ##  7 01004   01      84      1          25 99    1       0000  0      mercredi garçon
    ##  8 01004   01      84      1          23 46    1       0000  0      vendredi garçon
    ##  9 01004   01      84      2          27 47    1       2012  0      lundi    fille 
    ## 10 01004   01      84      2          27 46    1       0000  0      dimanche fille 
    ## # … with 792,858 more rows
…
## Solution de l’exercice (A)

### Avec case_when et l’appartenance à une liste

``` r
tab_naissances %>% 
  mutate(
    jweekend_ = case_when(jsemaine %in% c("samedi", "dimanche") ~ TRUE,
                           TRUE                                 ~ FALSE
                          )
  )
```

    ## # A tibble: 792,868 × 11
    ##    comnais depnais regnais sexe  agemere csm   indnatm amar  jumeau jsemaine jweekend_
    ##    <chr>   <chr>   <chr>   <chr>   <dbl> <chr> <chr>   <chr> <chr>  <chr>    <lgl>    
    ##  1 01004   01      84      2          34 46    1       2015  0      samedi   TRUE     
    ##  2 01004   01      84      1          29 43    1       0000  0      jeudi    FALSE    
    ##  3 01004   01      84      2          33 43    1       2010  0      jeudi    FALSE    
    ##  4 01004   01      84      1          28 46    1       0000  0      samedi   TRUE     
    ##  5 01004   01      84      1          35 52    1       2006  0      vendredi FALSE    
    ##  6 01004   01      84      1          33 47    1       2014  0      vendredi FALSE    
    ##  7 01004   01      84      1          25 99    1       0000  0      mercredi FALSE    
    ##  8 01004   01      84      1          23 46    1       0000  0      vendredi FALSE    
    ##  9 01004   01      84      2          27 47    1       2012  0      lundi    FALSE    
    ## 10 01004   01      84      2          27 46    1       0000  0      dimanche TRUE     
    ## # … with 792,858 more rows
…
## Solution de l’exercice (B)

### Avec un calcul booléen

``` r
tab_naissances %>% 
  mutate(jweekend_ = (jsemaine %in% c("samedi", "dimanche")))
```

    ## # A tibble: 792,868 × 11
    ##    comnais depnais regnais sexe  agemere csm   indnatm amar  jumeau jsemaine jweekend_
    ##    <chr>   <chr>   <chr>   <chr>   <dbl> <chr> <chr>   <chr> <chr>  <chr>    <lgl>    
    ##  1 01004   01      84      2          34 46    1       2015  0      samedi   TRUE     
    ##  2 01004   01      84      1          29 43    1       0000  0      jeudi    FALSE    
    ##  3 01004   01      84      2          33 43    1       2010  0      jeudi    FALSE    
    ##  4 01004   01      84      1          28 46    1       0000  0      samedi   TRUE     
    ##  5 01004   01      84      1          35 52    1       2006  0      vendredi FALSE    
    ##  6 01004   01      84      1          33 47    1       2014  0      vendredi FALSE    
    ##  7 01004   01      84      1          25 99    1       0000  0      mercredi FALSE    
    ##  8 01004   01      84      1          23 46    1       0000  0      vendredi FALSE    
    ##  9 01004   01      84      2          27 47    1       2012  0      lundi    FALSE    
    ## 10 01004   01      84      2          27 46    1       0000  0      dimanche TRUE     
    ## # … with 792,858 more rows

``` r
tab_naissances %>%
    mutate(age_ = case_when(agemere < 18 ~ 1,
                            agemere < 25 ~ 2,
                            agemere < 35 ~ 3,
                            agemere < 45 ~ 4,
                            TRUE       ~ 5
    ))
```

    ## # A tibble: 792,868 × 11
    ##    comnais depnais regnais sexe  agemere csm   indnatm amar  jumeau jsemaine  age_
    ##    <chr>   <chr>   <chr>   <chr>   <dbl> <chr> <chr>   <chr> <chr>  <chr>    <dbl>
    ##  1 01004   01      84      2          34 46    1       2015  0      samedi       3
    ##  2 01004   01      84      1          29 43    1       0000  0      jeudi        3
    ##  3 01004   01      84      2          33 43    1       2010  0      jeudi        3
    ##  4 01004   01      84      1          28 46    1       0000  0      samedi       3
    ##  5 01004   01      84      1          35 52    1       2006  0      vendredi     4
    ##  6 01004   01      84      1          33 47    1       2014  0      vendredi     3
    ##  7 01004   01      84      1          25 99    1       0000  0      mercredi     3
    ##  8 01004   01      84      1          23 46    1       0000  0      vendredi     2
    ##  9 01004   01      84      2          27 47    1       2012  0      lundi        3
    ## 10 01004   01      84      2          27 46    1       0000  0      dimanche     3
    ## # … with 792,858 more rows
…
## Entre `mutate()` et `summarise()`

Il est possible de créer une nouvelle colonne impliquant une
statistique, en redescendant le résultat d’un calcul fait sur un groupe
de lignes au niveau de chacune des lignes du groupe :

``` r
p %>% group_by(D) %>%
    mutate (PMUN15max = max(PMUN15, na.rm = TRUE))
```

    ## # A tibble: 38,219 × 13
    ## # Groups:   D [98]
    ##    DC    NCC          PMUN15 PMUN10 PMUN06 PSDC99 PSDC90 PSDC82 PSDC75 PSDC68 D     REGION PMUN15max
    ##    <chr> <chr>         <dbl>  <dbl>  <dbl>  <dbl>  <dbl>  <dbl>  <dbl>  <dbl> <chr> <chr>      <dbl>
    ##  1 01001 L' Abergeme…    767    784    811    728    579    477    368    347 01    82         40819
    ##  2 01002 L' Abergeme…    241    221    198    168    159    136    106     88 01    82         40819
    ##  3 01004 AmbÃ©rieu-e…  14127  13835  12709  11436  10455   9737   9550   8949 01    82         40819
    ##  4 01005 AmbÃ©rieux-…   1619   1616   1436   1408   1156    848    756    627 01    82         40819
    ##  5 01006 AmblÃ©on        109    116    120     86     76     65     82    108 01    82         40819
    ##  6 01007 Ambronay       2615   2362   2241   2146   1996   1862   1270   1193 01    82         40819
    ##  7 01008 Ambutrix        747    729    641    586    595    405    353    327 01    82         40819
    ##  8 01009 Andert-et-C…    342    340    319    275    262    276    184    159 01    82         40819
    ##  9 01010 Anglefort      1133    994    900    769    687    714    697    528 01    82         40819
    ## 10 01011 Apremont        390    363    333    329    341    279    200    148 01    82         40819
    ## # … with 38,209 more rows
…
    ## # A tibble: 1 × 2
    ##   depnais     n
    ##   <chr>   <int>
    ## 1 75      42832

``` r
tab_naissances %>% 
    group_by(depnais, comnais) %>%
    summarise(n = n()) %>%
    filter(n == max(n))
```

    ## `summarise()` has grouped output by 'depnais'. You can override using the `.groups` argument.

    ## # A tibble: 103 × 3
    ## # Groups:   depnais [103]
    ##    depnais comnais     n
    ##    <chr>   <chr>   <int>
    ##  1 01      01451    2188
    ##  2 02      02691    1863
    ##  3 03      03185    1115
    ##  4 04      04112     741
    ##  5 05      05061    1039
    ##  6 06      06088    7240
    ##  7 07      07102    1022
    ##  8 08      08105    1506
    ##  9 09      09264     978
    ## 10 10      10387    2750
    ## # … with 93 more rows
…
``` r
library(lubridate)
```

Notre jeu d’exemple : ce fichier fictif d’emploi par département

``` r
fichier_date <- readRDS("donnees/support/fichier_date.RDS")
fichier_date
```

    ## # A tibble: 2,800 × 3
    ##    Dept     Date_string Effectif_random
    ##    <chr>    <chr>                 <dbl>
    ##  1 01 - AIN 2010-12-31          188661.
    ##  2 01 - AIN 2011-03-31          189235.
    ##  3 01 - AIN 2011-06-30          191391.
    ##  4 01 - AIN 2011-09-30          190310.
    ##  5 01 - AIN 2011-12-31          189673.
    ##  6 01 - AIN 2012-03-31          189445.
    ##  7 01 - AIN 2012-06-30          191931.
    ##  8 01 - AIN 2012-09-30          190721.
    ##  9 01 - AIN 2012-12-31          189256.
    ## 10 01 - AIN 2013-03-31          189649.
    ## # … with 2,790 more rows
…
## Filtrer une plage de dates

``` r
date_debut <- ymd("2011-05-01")
date_fin <- ymd("2013-01-03")
intervalle <- interval(date_debut, date_fin)

fichier_date %>% filter(Date %within% intervalle)
```

    ## # A tibble: 700 × 4
    ##    Dept       Date_string Effectif_random Date      
    ##    <chr>      <chr>                 <dbl> <date>    
    ##  1 01 - AIN   2011-06-30          191391. 2011-06-30
    ##  2 01 - AIN   2011-09-30          190310. 2011-09-30
    ##  3 01 - AIN   2011-12-31          189673. 2011-12-31
    ##  4 01 - AIN   2012-03-31          189445. 2012-03-31
    ##  5 01 - AIN   2012-06-30          191931. 2012-06-30
    ##  6 01 - AIN   2012-09-30          190721. 2012-09-30
    ##  7 01 - AIN   2012-12-31          189256. 2012-12-31
    ##  8 02 - AISNE 2011-06-30          161415. 2011-06-30
    ##  9 02 - AISNE 2011-09-30          159412. 2011-09-30
    ## 10 02 - AISNE 2011-12-31          158003. 2011-12-31
    ## # … with 690 more rows
…
